<svg class="logo_header" id="Calque_1" data-name="Calque 1" width="161" height="40"
xmlns="http://www.w3.org/2000/svg" viewBox="0 0 127.65 31.65">
<title>Baroque_Restaurant_Charte</title>
<polygon points="69.66 4.63 69.66 4.63 69.66 4.63 69.66 4.63" fill="#fff" />
<polygon points="2.7 0.19 0 0.19 0 15.12 6.35 15.12 6.35 12.4 2.7 12.4 2.7 0.19"
    fill="#fff" />
<path fill="#fff"
    d="M113.49,10.9a1.56,1.56,0,0,1-.13.67,1.35,1.35,0,0,1-.41.5l0,0a2,2,0,0,1-.6.31h0a2.68,2.68,0,0,1-.85.12,2.73,2.73,0,0,1-.87-.12h0a1.82,1.82,0,0,1-.62-.32h0a1.35,1.35,0,0,1-.4-.48,1.74,1.74,0,0,1-.14-.7V.19h-2.69V10.91a4.35,4.35,0,0,0,.36,1.8h0a4.11,4.11,0,0,0,1.1,1.45l0,0,0,0a4.78,4.78,0,0,0,1.46.78h0a6,6,0,0,0,1.76.26,5.7,5.7,0,0,0,1.77-.26,4.39,4.39,0,0,0,1.49-.8,4,4,0,0,0,1.12-1.46,4.3,4.3,0,0,0,.38-1.82V.19h-2.72Z" />
<path fill="#fff"
    d="M39.34,8.77h0a4.39,4.39,0,0,0-.78-1.38l-.38.32h0l.07-.06.3-.26,0,0h0a4.3,4.3,0,0,0-1.12-.92,1.74,1.74,0,0,0,.11-.18h0a4,4,0,0,0,.47-2,4.53,4.53,0,0,0-.31-1.69h0a3.58,3.58,0,0,0-1-1.37h0A4,4,0,0,0,35.31.43h0A5.49,5.49,0,0,0,33.65.19H29.5V15.12h5a5.71,5.71,0,0,0,1.91-.32h0a5.09,5.09,0,0,0,1.62-1h0a4.42,4.42,0,0,0,1.14-1.54,4.64,4.64,0,0,0,.38-1.9A5,5,0,0,0,39.34,8.77ZM32.2,2.9h1.5a2.13,2.13,0,0,1,.66.1,1.86,1.86,0,0,1,.49.29l.12.14h0a.87.87,0,0,1,.16.26,1.55,1.55,0,0,1,.1.58,1.61,1.61,0,0,1-.1.59,1.07,1.07,0,0,1-.28.41h0a1.31,1.31,0,0,1-.45.28h0a1.74,1.74,0,0,1-.62.1H32.2Zm4.54,8.29a1.6,1.6,0,0,1-.48.61l0,0a2.56,2.56,0,0,1-.71.42,3.05,3.05,0,0,1-.95.15H32.2v-4h2.36a3.08,3.08,0,0,1,1,.14,2.2,2.2,0,0,1,.7.4l.12.14h0a1.7,1.7,0,0,1,.37.5,2,2,0,0,1,.16.83A2,2,0,0,1,36.74,11.19Z" />
<polygon fill="#fff"
    points="127.65 2.9 127.65 0.19 119.45 0.19 119.45 15.12 127.65 15.12 127.65 12.4 122.17 12.4 122.17 8.42 127.65 8.42 127.65 5.65 122.17 5.65 122.17 2.9 127.65 2.9" />
<polygon fill="#fff" points="39.22 12.28 39.22 12.28 39.22 12.28 39.22 12.28" />
<polygon fill="#fff"
    points="8.93 15.12 17.13 15.12 17.13 12.4 11.65 12.4 11.65 8.42 17.13 8.42 17.13 5.65 11.65 5.65 11.65 2.9 17.13 2.9 17.13 0.19 8.93 0.19 8.93 15.12" />
<polygon fill="#fff" points="113.22 14.99 113.22 14.99 113.22 14.99 113.22 14.99" />
<path fill="#fff"
    d="M101,2.14l-.34.35,0,0,.31-.32A7.13,7.13,0,0,0,98.5.53h0a8.82,8.82,0,0,0-6,0A7.25,7.25,0,0,0,90,2.16h0a7.23,7.23,0,0,0-1.61,2.47h0a8.32,8.32,0,0,0-.53,3,8.27,8.27,0,0,0,.54,3h0A7,7,0,0,0,90,13.16a7.31,7.31,0,0,0,2.46,1.62h0a8.48,8.48,0,0,0,3,.52,8.37,8.37,0,0,0,3-.53h0a7.13,7.13,0,0,0,1.64-.91V14l.83-.83a7.14,7.14,0,0,0,1.63-2.47h0a8.27,8.27,0,0,0,.54-3,8.38,8.38,0,0,0-.54-3A7.13,7.13,0,0,0,101,2.14Zm-.9,7.55a4.27,4.27,0,0,1-1,1.55,4.56,4.56,0,0,1-1.56,1h0a5.76,5.76,0,0,1-2,.34,5.37,5.37,0,0,1-2-.35h0a4.49,4.49,0,0,1-1.57-1,4.29,4.29,0,0,1-1-1.54,5.44,5.44,0,0,1-.35-2,5.39,5.39,0,0,1,.35-2h0a4.33,4.33,0,0,1,1-1.56L92,4a4.36,4.36,0,0,1,1.46-1h0a6,6,0,0,1,4,0h0a4.42,4.42,0,0,1,1.57,1h0a4.36,4.36,0,0,1,1,1.54,5.53,5.53,0,0,1,.35,2A5.53,5.53,0,0,1,100.09,9.69Z" />
<path fill="#fff"
    d="M83.91,4.62a6.92,6.92,0,0,0-1.59-2.44h0l0,0A7.22,7.22,0,0,0,79.8.53h0a8.82,8.82,0,0,0-6,0,7.25,7.25,0,0,0-2.48,1.62h0a7.09,7.09,0,0,0-1.61,2.47h0a8.32,8.32,0,0,0-.53,3,8.15,8.15,0,0,0,.54,3,6.84,6.84,0,0,0,1.62,2.47h0a7.31,7.31,0,0,0,2.46,1.62h0a8.48,8.48,0,0,0,3,.52,8.32,8.32,0,0,0,3-.53h0a7.13,7.13,0,0,0,2.48-1.63h0a7,7,0,0,0,1.63-2.47h0a8.27,8.27,0,0,0,.54-3,8.38,8.38,0,0,0-.54-3ZM81.39,9.68a4.35,4.35,0,0,1-1,1.56,4.6,4.6,0,0,1-1.57,1,5.66,5.66,0,0,1-2,.34,5.46,5.46,0,0,1-2-.35h0a4.66,4.66,0,0,1-1.56-1,4.45,4.45,0,0,1-1-1.55h0a5.62,5.62,0,0,1-.34-2,5.39,5.39,0,0,1,.35-2h0a4.33,4.33,0,0,1,1-1.56h0a4.66,4.66,0,0,1,1.56-1h0a5.32,5.32,0,0,1,2-.35,5.48,5.48,0,0,1,2,.35h0a4.61,4.61,0,0,1,2.59,2.58,5.72,5.72,0,0,1,.34,2A5.66,5.66,0,0,1,81.39,9.68Z" />
<path fill="#fff"
    d="M62.83,8.41h0a3.88,3.88,0,0,0,1.48-.77h0a3.62,3.62,0,0,0,1-1.39h0a4.79,4.79,0,0,0,.34-1.87v0a4.17,4.17,0,0,0-.33-1.66v0l0-.1a4,4,0,0,0-1-1.33h0A4.26,4.26,0,0,0,62.85.44h0A5.56,5.56,0,0,0,61.16.19h-4V15.12h2.7V8.84l4,6.28h3.22l-4.3-6.7Zm-.76-2.59a2.48,2.48,0,0,1-.72.11H59.88v-3h1.26A2.83,2.83,0,0,1,62,3h0a1.73,1.73,0,0,1,.56.29h0a1,1,0,0,1,.32.41,1.53,1.53,0,0,1,.13.66,2,2,0,0,1-.12.73h0a1,1,0,0,1-.28.42A1.67,1.67,0,0,1,62.07,5.82Z" />
<polygon points="114.71 14.19 114.71 14.19 114.71 14.19 114.71 14.19" />
<path fill="#fff"
    d="M47.37.17l-5.75,15h2.84L46,11.24h4.55L52,15.12h2.86L49,.17ZM47,8.52l1.21-3.14,1.22,3.14Z" />
<rect fill="#fff" x="94.51" y="16.36" width="5.8" height="2.71" />
<path fill="#fff"
    d="M28.55,31.39H27.9V25.55h.85c1.1,0,2.13.3,2.13,1.61a1.52,1.52,0,0,1-1.46,1.61l1.86,2.62h-.8l-1.76-2.56h-.17Zm0-3.14h.2c.74,0,1.48-.14,1.48-1s-.7-1.05-1.48-1.05h-.2Z" />
<polygon fill="#fff"
    points="35.03 25.55 38.06 25.55 38.06 26.16 35.69 26.16 35.69 27.89 37.99 27.89 37.99 28.49 35.69 28.49 35.69 30.78 38.06 30.78 38.06 31.39 35.03 31.39 35.03 25.55" />
<path fill="#fff"
    d="M44.75,26.69a1.07,1.07,0,0,0-1-.63.92.92,0,0,0-1,.9c0,.5.52.74.91.91l.39.17c.76.34,1.4.72,1.4,1.64a1.84,1.84,0,0,1-3.65.3l.63-.18a1.19,1.19,0,0,0,1.17,1.08,1.17,1.17,0,0,0,1.2-1.13c0-.68-.54-.92-1.08-1.16l-.35-.16c-.68-.31-1.27-.66-1.27-1.49a1.53,1.53,0,0,1,1.63-1.49,1.67,1.67,0,0,1,1.51.91Z" />
<polygon fill="#fff"
    points="50.91 31.39 50.26 31.39 50.26 26.16 48.86 26.16 48.86 25.55 52.34 25.55 52.34 26.16 50.91 26.16 50.91 31.39" />
<path fill="#fff"
    d="M56.2,29.73l-.71,1.66h-.71l2.69-6.12,2.63,6.12h-.72l-.69-1.66Zm1.26-2.94-1,2.34h2Z" />
<path fill="#fff"
    d="M64.3,29a2.19,2.19,0,0,0,.26,1.3,1.5,1.5,0,0,0,1.17.55,1.53,1.53,0,0,0,1.15-.52A2,2,0,0,0,67.17,29V25.55h.64V29.2a2,2,0,0,1-.51,1.62,2.17,2.17,0,0,1-3.07.07,2.07,2.07,0,0,1-.58-1.69V25.55h.65Z" />
<path fill="#fff"
    d="M72.56,31.39h-.65V25.55h.84c1.11,0,2.13.3,2.13,1.61a1.52,1.52,0,0,1-1.46,1.61l1.86,2.62h-.8l-1.76-2.56h-.16Zm0-3.14h.2c.73,0,1.47-.14,1.47-1s-.7-1.05-1.48-1.05h-.19Z" />
<path fill="#fff"
    d="M79.91,29.73l-.7,1.66H78.5l2.69-6.12,2.62,6.12h-.72l-.69-1.66Zm1.26-2.94-1,2.34h2Z" />
<polygon fill="#fff"
    points="87.42 25.3 91.97 30.07 91.97 25.55 92.62 25.55 92.62 31.65 88.07 26.89 88.07 31.39 87.42 31.39 87.42 25.3" />
<polygon fill="#fff"
    points="98.32 31.39 97.67 31.39 97.67 26.16 96.26 26.16 96.26 25.55 99.75 25.55 99.75 26.16 98.32 26.16 98.32 31.39" />
</svg>