<svg width="914" height="1016" viewBox="0 0 914 1016" fill="none" xmlns="http://www.w3.org/2000/svg">
<circle cx="406" cy="508" r="507.5" stroke="url(#paint0_linear)"/>
<defs>
<linearGradient id="paint0_linear" x1="803" y1="203.5" x2="93.5" y2="880.5" gradientUnits="userSpaceOnUse">
<stop offset="0.0402308" stop-color="#5F5F5F" stop-opacity="0.2"/>
<stop offset="1" stop-color="white"/>
</linearGradient>
</defs>
</svg>
