<svg width="16" height="16" viewBox="0 0 16 16" fill="none" xmlns="http://www.w3.org/2000/svg">
<path d="M7.989 0C7.96699 2.01662 7.21871 3.87812 5.96424 5.27424C4.51169 6.93629 2.37689 8 0 8C2.20083 8 4.18157 8.90859 5.63411 10.349C7.08666 11.7895 7.989 13.7839 8.011 16C8.03301 13.6288 9.0674 11.5014 10.718 10.0166C12.1265 8.75346 13.9752 8 16 8C13.6231 8 11.5103 6.95845 10.0358 5.2964C8.78129 3.87812 8.011 2.03878 7.989 0Z" fill="#d6a393"/>
</svg>
